,Similarity,Synset,Concept,Pleasantness,Attention,Sensitivity,Aptitude
0,1.0,interfering.s.01,https://sentic.net/api/en/concept/interfering,-0.99,0,0.851,-0.89
1,0.2222222222222222,travel.v.01,https://sentic.net/api/en/concept/explorer,0.069,0.07,0,0.116
2,0.4,state.n.02,https://sentic.net/api/en/concept/democracy,0.044,0.133,-0.08,0.087
3,0.5,refer.v.02,https://sentic.net/api/en/concept/narrative,0.1,0.085,0,0.093
4,0.6,matter.n.06,https://sentic.net/api/en/concept/message,0,0,0,0.162
5,0.46153846153846156,benefit.n.02,https://sentic.net/api/en/concept/point,0.04,0.074,0.059,0.092
6,0.5,receive.v.05,https://sentic.net/api/en/concept/take,-0.04,0.271,-0.20,0.386
7,0.6153846153846154,affair.n.03,https://sentic.net/api/en/concept/divorce,-0.74,0,0,-0.72
8,0.4,profit.v.01,https://sentic.net/api/en/concept/owe,-0.05,0.299,-0.11,0.134
9,0.6666666666666666,world.n.08,https://sentic.net/api/en/concept/population,0.038,0.073,0,0
10,1.0,contemn.v.01,https://sentic.net/api/en/concept/contemn,-0.09,0.188,0.625,-0.63
11,1.0,keep.v.01,https://sentic.net/api/en/concept/keep,0.02,0.228,-0.14,0.306
12,0.9411764705882353,repute.n.01,https://sentic.net/api/en/concept/stock,0.021,0.079,0.011,0.118
13,0.46153846153846156,reason.n.01,https://sentic.net/api/en/concept/explanation,0,0.346,-0.10,0.3
14,0.5,call.v.16,https://sentic.net/api/en/concept/say,0.564,-0.74,0,0.538
15,1.0,respect.n.03,https://sentic.net/api/en/concept/respect,0.324,0.461,-0.34,0.442
16,0.46153846153846156,diagonal.n.02,https://sentic.net/api/en/concept/high,0,0.14,-0.04,0.165
17,0.42857142857142855,comparison.n.02,https://sentic.net/api/en/concept/comparative,-0.05,0.286,-0.20,0.351
18,0.47058823529411764,sculptor.n.01,https://sentic.net/api/en/concept/art,0.057,0.101,0,0.158
19,0.5,say.v.09,https://sentic.net/api/en/concept/insist,0,0.715,0,0.712
20,0.5,hold.v.14,https://sentic.net/api/en/concept/sensual,0.841,0,0,0.833
21,0.4,produce.v.02,https://sentic.net/api/en/concept/manufacture,0,0.21,-0.06,0.245
22,0.4,induce.v.02,https://sentic.net/api/en/concept/repeat,-0.1,0.242,-0.13,0.196
23,0.9230769230769231,hello.n.01,https://sentic.net/api/en/concept/greeting,0.898,-0.70,0,0.712
24,1.0,precisely.r.03,https://sentic.net/api/en/concept/precisely,0,0.733,0,0.863
25,0.4444444444444444,habit.n.01,https://sentic.net/api/en/concept/use,-0.04,0.141,-0.09,0.21
26,0.8888888888888888,praise.v.01,https://sentic.net/api/en/concept/compliment,0.986,0,0,0.939
27,0.2,ancient.n.02,https://sentic.net/api/en/concept/past,0,0.078,0,0.096
28,1.0,harbinger.n.01,https://sentic.net/api/en/concept/harbinger,0,0,-0.71,-0.83
29,0.3,envy.n.02,https://sentic.net/api/en/concept/jealousy,0,0,0.794,-0.99
30,0.5714285714285714,animation.n.01,https://sentic.net/api/en/concept/exhilaration,0.767,0.702,0,0.878
31,0.8,fear.n.03,https://sentic.net/api/en/concept/scare,0,0,-0.94,0
32,0.9411764705882353,wrath.n.01,https://sentic.net/api/en/concept/fury,0,0,0.786,-0.96
33,0.9230769230769231,way.n.06,https://sentic.net/api/en/concept/road,0,0.065,0,0.089
34,0.36363636363636365,rate.n.01,https://sentic.net/api/en/concept/reservation,0,0.084,0,0
35,0.4,address.v.02,https://sentic.net/api/en/concept/station,0.047,0.114,0.027,0
36,0.631578947368421,think.n.01,https://sentic.net/api/en/concept/insight,-0.06,-0.02,0.02,-0.17
37,0.2222222222222222,witness.v.01,https://sentic.net/api/en/concept/judgment,-0.53,0,0.603,-0.83
38,0.6666666666666666,accuracy.n.01,https://sentic.net/api/en/concept/time,0.86,-0.79,0,0.93
39,0.36363636363636365,artwork.n.01,https://sentic.net/api/en/concept/tapestry,0.056,-0.02,0,0
40,1.0,advance.v.01,https://sentic.net/api/en/concept/advance,-0.07,0.227,-0.13,0.203
41,0.9090909090909091,ability.n.02,https://sentic.net/api/en/concept/skill,-0.03,0.183,0,0.181
42,0.5454545454545454,home.n.03,https://sentic.net/api/en/concept/flat,0,0,0.865,-0.95
43,0.5,capacity.n.08,https://sentic.net/api/en/concept/resistance,-0.78,0,-0.88,0
44,1.0,better.s.03,https://sentic.net/api/en/concept/better,0.835,0,0,0.861
45,0.6,citizen.n.01,https://sentic.net/api/en/concept/nation,0.716,-0.51,0,0.647
46,0.4,attend.v.03,https://sentic.net/api/en/concept/visit,0.065,0,-0.05,0.085
47,0.5454545454545454,community.n.06,https://sentic.net/api/en/concept/city,0,0,0,0.104
48,0.6666666666666666,opinion.n.02,https://sentic.net/api/en/concept/reason,-0.09,0.286,-0.18,0.227
49,0.18181818181818182,assembly.n.05,https://sentic.net/api/en/concept/clique,0.042,0,0,0.067
50,0.4,grant.v.05,https://sentic.net/api/en/concept/sign,0.037,0.073,0,0.098
51,0.4,exhibition.n.02,https://sentic.net/api/en/concept/artwork,0.047,0,0,0.055
52,1.0,youthful.s.01,https://sentic.net/api/en/concept/youthful,0.734,0,0,0.756
53,0.4,gain.v.08,https://sentic.net/api/en/concept/receive,0.933,0,0,0.788
54,0.46153846153846156,hand.n.06,https://sentic.net/api/en/concept/right,0.882,-0.60,0,0.529
55,0.5,money.n.02,https://sentic.net/api/en/concept/down_payment,0.973,0.707,0,0
56,0.75,friend.n.01,https://sentic.net/api/en/concept/admirer,0.814,-0.50,0,0.622
57,0.6153846153846154,place.n.03,https://sentic.net/api/en/concept/property,0.024,0.199,-0.11,0.168
58,0.9090909090909091,time.n.03,https://sentic.net/api/en/concept/time_period,0,0.069,0,0.092
59,0.6,people.n.01,https://sentic.net/api/en/concept/crowd,-0.82,0,0,-0.73
60,0.4,agree.v.07,https://sentic.net/api/en/concept/forgive,0,0,0,0.894
61,0.5454545454545454,wise.n.01,https://sentic.net/api/en/concept/wisdom,0.673,-0.57,0,0.627
62,0.21052631578947367,examination.n.02,https://sentic.net/api/en/concept/nervous_breakdown,-0.07,0,-0.13,0
63,0.5,reach.v.01,https://sentic.net/api/en/concept/keep,0.02,0.228,-0.14,0.306
64,0.2,state.v.01,https://sentic.net/api/en/concept/democracy,0.044,0.133,-0.08,0.087
65,0.5,take.v.39,https://sentic.net/api/en/concept/spread,0.849,-0.54,0,0.543
66,0.8888888888888888,zeus.n.01,https://sentic.net/api/en/concept/deity,0,0,0,0.844
67,0.18181818181818182,desire.v.01,https://sentic.net/api/en/concept/greed,-0.50,0,0.932,-0.83
68,0.5,avoid.v.03,https://sentic.net/api/en/concept/prevent,0,0.266,-0.12,0.303
69,0.125,intercourse.n.01,https://sentic.net/api/en/concept/fuck,0,0,0.741,-0.8
70,0.25,transport.v.04,https://sentic.net/api/en/concept/motorbike,0.21,0.131,-0.05,0.084
71,0.3333333333333333,load.v.03,https://sentic.net/api/en/concept/spread,0.849,-0.54,0,0.543
72,0.5,understand.v.02,https://sentic.net/api/en/concept/know,0.098,0.165,-0.13,0.284
73,0.18181818181818182,educate.v.01,https://sentic.net/api/en/concept/education,0.97,0,0.773,0.878
74,0.7058823529411765,child.n.03,https://sentic.net/api/en/concept/male_child,0.631,-0.52,0,0.942
75,0.2857142857142857,persuade.v.02,https://sentic.net/api/en/concept/misconstrue,0,0,-0.96,-0.90
76,0.625,course.n.09,https://sentic.net/api/en/concept/crisscross,-0.78,0,0.754,-0.96
77,0.47058823529411764,part.n.04,https://sentic.net/api/en/concept/fortune,0.976,0.811,0,0
78,0.9230769230769231,acquisition.n.02,https://sentic.net/api/en/concept/purchase,-0.05,0.175,0,0.117
79,0.9230769230769231,virtue.n.03,https://sentic.net/api/en/concept/honor,0.857,0.824,0,0.708
80,0.3333333333333333,honor.v.03,https://sentic.net/api/en/concept/compulsory,0.924,-0.55,0,0.756
81,0.4,wish.v.04,https://sentic.net/api/en/concept/necessitate,0,0.952,0,0.946
82,1.0,regulate.v.02,https://sentic.net/api/en/concept/regulate,-0.91,0,0.637,-0.60
83,0.4,think.v.12,https://sentic.net/api/en/concept/brainstorm,-0.07,0.231,0,0.087
84,0.6153846153846154,error.n.06,https://sentic.net/api/en/concept/mistake,-0.74,0,0.876,-0.86
85,0.5,dissemble.v.03,https://sentic.net/api/en/concept/fake,-0.09,0.156,0.661,-0.65
86,0.47058823529411764,yes.n.01,https://sentic.net/api/en/concept/rebuke,-0.50,0,0.543,-0.62
87,0.13333333333333333,may.n.01,https://sentic.net/api/en/concept/dickey,-0.96,0,0.624,-0.99
88,0.2222222222222222,enjoy.v.01,https://sentic.net/api/en/concept/happiness,0.868,0,0,0
89,1.0,applaud.v.01,https://sentic.net/api/en/concept/applaud,0.354,-0.23,-0.05,0
90,0.8333333333333334,law.n.01,https://sentic.net/api/en/concept/legislation,0,0.178,-0.04,0.118
91,0.2222222222222222,injury.n.05,https://sentic.net/api/en/concept/bruise,0,0,0,-0.93
92,0.5714285714285714,opinion.n.01,https://sentic.net/api/en/concept/reason,-0.09,0.286,-0.18,0.227
93,0.875,law.n.04,https://sentic.net/api/en/concept/rule,0,0.113,0,0.105
94,1.0,impossible.s.03,https://sentic.net/api/en/concept/impossible,-0.89,0,0.897,-0.85
95,1.0,politics.n.02,https://sentic.net/api/en/concept/politics,0.075,0.216,-0.07,0.11
96,0.5,neglect.v.01,https://sentic.net/api/en/concept/take,-0.04,0.271,-0.20,0.386
97,0.5,know.v.07,https://sentic.net/api/en/concept/understand,0.098,0.165,-0.13,0.284
98,0.5,truth.n.01,https://sentic.net/api/en/concept/ethic,0.712,0,0,0.912
99,1.0,beneficial.s.01,https://sentic.net/api/en/concept/beneficial,0.53,-0.55,0,0.912
100,0.8,entrust.v.02,https://sentic.net/api/en/concept/pass,0.855,0.741,0,0.862
101,0.9090909090909091,son.n.02,https://sentic.net/api/en/concept/father,0.108,-0.04,0.043,0.065
102,0.5555555555555556,controversy.n.01,https://sentic.net/api/en/concept/vengeance,-0.78,0,0,-0.92
103,0.5454545454545454,motivation.n.01,https://sentic.net/api/en/concept/training,0.908,-0.83,0,0.822
104,0.5,find.v.01,https://sentic.net/api/en/concept/observe,-0.05,0.085,0,0.098
105,0.3333333333333333,regard.v.02,https://sentic.net/api/en/concept/admire,0,0,0,0.705
106,0.5333333333333333,eden.n.01,https://sentic.net/api/en/concept/garden,0,0.085,0,0.146
107,0.375,kind.n.01,https://sentic.net/api/en/concept/kindness,0,0,0,0.98
108,0.36363636363636365,discourse.n.01,https://sentic.net/api/en/concept/speech,0.796,0,0,0.96
109,0.7142857142857143,floor.n.02,https://sentic.net/api/en/concept/floor_cover,-0.03,0.00,0.066,0
110,1.0,necessitate.v.01,https://sentic.net/api/en/concept/necessitate,0,0.952,0,0.946
111,0.26666666666666666,habit.n.05,https://sentic.net/api/en/concept/consumption,0,-0.17,0,0.244
112,0.7058823529411765,stranger.n.02,https://sentic.net/api/en/concept/outsider,-0.23,0.235,0.456,-0.57
